Match names to the WCVP. — wcvp_match_names • rWCVP
…
#> 
#> ── Fuzzy matching 8 names ──
#> 
#> Matching ■■■■■■■                           20% ETA 15s
#> Matching ■■■■■■■■■■■■■                     40% ETA 11s
#> Matching ■■■■■■■■■■■■■■■■■■■               60% ETA  8s
#> ── Matching complete! ──
#> 
#> ✔ Matched 19 of 20 names
#> ℹ Exact (with author): 6
#> ℹ Exact (without author): 6
#> ℹ Fuzzy (edit distance): 4
#> ℹ Fuzzy (phonetic): 3
#> ! Names with multiple matches: 2
#> # A tibble: 22 × 18
#>    assessmentId scientificName           redlistCategory authority    match_type
#>           <dbl> <chr>                    <chr>           <chr>        <chr>     
#>  1     11081542 Antimima quartzitica     Least Concern   (Dinter) H.… Fuzzy (ed…
#>  2     19395021 Avena hybrida            Data Deficient  Peterm.      Exact (wi…
#>  3     64135503 Citrus garrawayi         Least Concern   F.M.Bailey   Fuzzy (ph…
#>  4    189601563 Croton campanulatus      Endangered      Caruzo & Co… Exact (wi…
#>  5    115968141 Cynanchum freemani       Endangered      (N.E.Br.) W… Fuzzy (ph…
#>  6     11047751 Echinacanthus longipes   Vulnerable      H.S.Lo & D.… Exact (wi…
#>  7     11001316 Geissanthus pinchinchana Endangered      (Lundell) P… Fuzzy (ed…
#>  8    126598076 Juglans pyriformis       Endangered      Liebm.       Exact (wi…
#>  9    198678856 Leichhardtia variifolia  Vulnerable      (Guillaumin… Exact (wi…
#> 10    135836392 Mouriri myrtilloides     Least Concern   (Sw.) Poir.  Exact (wi…
#> # ℹ 12 more rows
#> # ℹ 13 more variables: multiple_matches <lgl>, match_similarity <dbl>,
#> #   match_edit_distance <dbl>, wcvp_id <dbl>, wcvp_name <chr>,
#> #   wcvp_authors <chr>, wcvp_rank <chr>, wcvp_status <chr>,
#> #   wcvp_homotypic <lgl>, wcvp_ipni_id <chr>, wcvp_accepted_id <dbl>,
#> #   wcvp_author_edit_distance <dbl>, wcvp_author_lcs <int>
…
