Generate occurrence matrix for taxa and areas — wcvp_occ_mat • rWCVP
…
    Details

    See here for an example of how this output can be formatted for publication.

    Examples

 # this example requires 'rWCVPdata'
if(requireNamespace("rWCVPdata")){
wcvp_occ_mat(
  taxon = "Poa", taxon_rank = "genus",
  area = c("TAS", "VIC", "NSW"), introduced = FALSE
)
}
#> # A tibble: 37 × 5
#>    plant_name_id taxon_name          NSW   TAS   VIC
#>            <dbl> <chr>             <dbl> <dbl> <dbl>
#>  1        435044 Poa affinis           1     0     1
#>  2        469193 Poa amplexicaulis     0     0     1
#>  3        435565 Poa cheelii           1     0     0
#>  4        435598 Poa clelandii         0     1     1
#>  5        435599 Poa clivicola         1     1     1
#>  6        435658 Poa costiniana        1     1     1
#>  7        435661 Poa crassicaudex      0     0     1
#>  8        435797 Poa drummondiana      0     0     1
#>  9        435841 Poa ensiformis        1     0     1
#> 10        435878 Poa fawcettiae        1     1     1
#> # ℹ 27 more rows
…
