Exact matching to WCVP. — wcvp_match_exact • rWCVP
…
 # these examples require 'rWCVPdata'
if(requireNamespace("rWCVPdata")){
wcvp_names <- rWCVPdata::wcvp_names

# including author string
wcvp_match_exact(redlist_example, wcvp_names, "scientificName",
  author_col = "authority",
  id_col = "assessmentId"
)

# without author string
wcvp_match_exact(redlist_example, wcvp_names, "scientificName", id_col = "assessmentId")
}
#> # A tibble: 23 × 16
#>    assessmentId scientificName           redlistCategory authority    match_type
#>           <dbl> <chr>                    <chr>           <chr>        <chr>     
#>  1     11081542 Antimima quartzitica     Least Concern   (Dinter) H.… NA        
#>  2     19395021 Avena hybrida            Data Deficient  Peterm.      Exact (wi…
#>  3     64135503 Citrus garrawayi         Least Concern   F.M.Bailey   NA        
#>  4    189601563 Croton campanulatus      Endangered      Caruzo & Co… Exact (wi…
#>  5    115968141 Cynanchum freemani       Endangered      (N.E.Br.) W… NA        
#>  6     11047751 Echinacanthus longipes   Vulnerable      H.S.Lo & D.… Exact (wi…
#>  7     11001316 Geissanthus pinchinchana Endangered      (Lundell) P… NA        
#>  8    126598076 Juglans pyriformis       Endangered      Liebm.       Exact (wi…
#>  9    126598076 Juglans pyriformis       Endangered      Liebm.       Exact (wi…
#> 10    198678856 Leichhardtia variifolia  Vulnerable      (Guillaumin… Exact (wi…
#> # ℹ 13 more rows
#> # ℹ 11 more variables: multiple_matches <lgl>, match_similarity <dbl>,
#> #   match_edit_distance <dbl>, wcvp_id <dbl>, wcvp_name <chr>,
#> #   wcvp_authors <chr>, wcvp_rank <chr>, wcvp_status <chr>,
#> #   wcvp_homotypic <lgl>, wcvp_ipni_id <chr>, wcvp_accepted_id <dbl>
…
