Publication-ready occurrence matrices with rWCVP • rWCVP
…
6

Perfect! 25 species (rows) won’t take up too much space, and there
are enough occurrences to make it interesting.

Generating and formatting the occurrence matrix

Generating an occurrence matrix for this genus is as simple as using
the generate_occurence_matrix function.

m <- wcvp_occ_mat(taxon="Myrciaria", taxon.rank="genus", 
                                area=get_wgsrpd3_codes("Brazil"))
m
#> # A tibble: 23 × 7
#>    plant_name_id taxon_name             BZC   BZE   BZL   BZN   BZS
#>    <chr>         <chr>                <dbl> <dbl> <dbl> <dbl> <dbl>
#>  1 473796-wcs    Myrciaria alagoana       0     1     0     0     0
#>  2 534878-wcs    Myrciaria alta           0     0     1     0     0
#>  3 534776-wcs    Myrciaria cambuca        0     1     1     0     0
#>  4 131799-wcs    Myrciaria cordata        0     0     0     1     0
#>  5 131802-wcs    Myrciaria cuspidata      1     1     1     0     1
#>  6 131803-wcs    Myrciaria delicatula     1     0     1     0     1
#>  7 131806-wcs    Myrciaria disticha       0     1     1     0     0
#>  8 131810-wcs    Myrciaria dubia          1     0     0     1     0
#>  9 491614-wcs    Myrciaria evanida        0     0     1     0     0
#> 10 131814-wcs    Myrciaria ferruginea     0     1     1     0     0
#> # … with 13 more rows
…
1

22

A few more there to work with. First, let’s look at the native
species only:

m <- wcvp_occ_mat(taxon="Poa", taxon.rank="genus",
                                area=get_wgsrpd3_codes("Northern Europe"), 
                                introduced=FALSE, extinct=FALSE, 
                                location_doubtful=FALSE)
m
#> # A tibble: 26 × 11
#>    plant_name_id taxon_n…¹   DEN   FIN   FOR   GRB   ICE   IRE   NOR   SVA   SWE
#>    <chr>         <chr>     <dbl> <dbl> <dbl> <dbl> <dbl> <dbl> <dbl> <dbl> <dbl>
#>  1 435004-wcs    Poa abbr…     0     0     0     0     0     0     0     1     0
#>  2 435078-wcs    Poa alpi…     0     1     1     0     1     0     1     1     1
#>  3 435085-wcs    Poa alpi…     0     1     1     1     1     1     1     1     1
#>  4 435167-wcs    Poa angu…     1     1     0     1     0     0     1     0     1
#>  5 435194-wcs    Poa annua     1     1     1     1     1     1     1     0     1
#>  6 435235-wcs    Poa arct…     0     1     0     0     0     0     1     1     1
#>  7 435458-wcs    Poa bulb…     1     1     0     1     0     0     1     0     1
#>  8 435601-wcs    Poa × co…     0     0     0     1     0     0     0     0     0
#>  9 435622-wcs    Poa comp…     1     1     0     0     0     0     1     0     1
#> 10 435932-wcs    Poa flex…     0     0     0     1     1     0     1     0     1
#> # … with 16 more rows, and abbreviated variable name ¹​taxon_name
…
