Fuzzy (approximate) matching to the WCVP. — fuzzy_match • rWCVP
…
    Other name matching functions: 
exact_match(),
match_names()

    Examples

wcvp_names <- rWCVPdata::wcvp_names
fuzzy_match(redlist_example, wcvp_names, "scientificName")
#> Matching ■■■■■■                            17% | ETA: 28s
#> Matching ■■■■■■■■■■■■■■■■                  50% | ETA: 16s
#> Matching ■■■■■■■■■■■■■■■■■■■■■             67% | ETA: 13s
#> Matching ■■■■■■■■■■■■■■■■■■■■■■■■■■        83% | ETA:  6s
#> Matching ■■■■■■■■■■■■■■■■■■■■■■■■■■■■■■■  100% | ETA:  0s
#> 
#> # A tibble: 23 × 16
#>    assessmentId scientificName          redlistCategory authority     match_type
#>           <dbl> <chr>                   <chr>           <chr>         <chr>     
#>  1     19395021 Avena hybrida           Data Deficient  Peterm.       Fuzzy (ph…
#>  2     64135503 Citrus garrawayi        Least Concern   F.M.Bailey    Fuzzy (ph…
#>  3    189601563 Croton campanulatus     Endangered      Caruzo & Cor… Fuzzy (ph…
#>  4    115968141 Cynanchum freemani      Endangered      (N.E.Br.) Wo… Fuzzy (ph…
#>  5     11047751 Echinacanthus longipes  Vulnerable      H.S.Lo & D. … Fuzzy (ph…
#>  6    126598076 Juglans pyriformis      Endangered      Liebm.        Fuzzy (ph…
#>  7    126598076 Juglans pyriformis      Endangered      Liebm.        Fuzzy (ph…
#>  8    135836392 Mouriri myrtilloides    Least Concern   (Sw.) Poir.   Fuzzy (ph…
#>  9    146459149 Neocussonia umbellifera Least Concern   (Sond.) Hutc… Fuzzy (ph…
#> 10    170239556 Papuodendron lepidotum  Least Concern   C.T.White     Fuzzy (ph…
#> # … with 13 more rows, and 11 more variables: multiple_matches <lgl>,
#> #   match_similarity <dbl>, match_edit_distance <dbl>, wcvp_id <chr>,
#> #   wcvp_name <chr>, wcvp_authors <chr>, wcvp_rank <chr>, wcvp_status <chr>,
#> #   wcvp_homotypic <lgl>, wcvp_ipni_id <chr>, wcvp_accepted_id <chr>

wcvp_names <- rWCVPdata::wcvp_names
phonetic_match(redlist_example, wcvp_names, "scientificName")
#> # A tibble: 24 × 16
#>    assessmentId scientificName           redlistCategory authority    match_type
#>           <dbl> <chr>                    <chr>           <chr>        <chr>     
#>  1     11081542 Antimima quartzitica     Least Concern   (Dinter) H.… NA        
#>  2     19395021 Avena hybrida            Data Deficient  Peterm.      Fuzzy (ph…
#>  3     64135503 Citrus garrawayi         Least Concern   F.M.Bailey   Fuzzy (ph…
#>  4    189601563 Croton campanulatus      Endangered      Caruzo & Co… Fuzzy (ph…
#>  5    115968141 Cynanchum freemani       Endangered      (N.E.Br.) W… Fuzzy (ph…
#>  6     11047751 Echinacanthus longipes   Vulnerable      H.S.Lo & D.… Fuzzy (ph…
#>  7     11001316 Geissanthus pinchinchana Endangered      (Lundell) P… NA        
#>  8    126598076 Juglans pyriformis       Endangered      Liebm.       Fuzzy (ph…
#>  9    126598076 Juglans pyriformis       Endangered      Liebm.       Fuzzy (ph…
#> 10    198678856 Leichhardtia variifolia  Vulnerable      (Guillaumin… NA        
#> # … with 14 more rows, and 11 more variables: multiple_matches <lgl>,
#> #   match_similarity <dbl>, match_edit_distance <dbl>, wcvp_id <chr>,
#> #   wcvp_name <chr>, wcvp_authors <chr>, wcvp_rank <chr>, wcvp_status <chr>,
#> #   wcvp_homotypic <lgl>, wcvp_ipni_id <chr>, wcvp_accepted_id <chr>
…
#> Matching ■■■■■■■■■■■■■                     40% | ETA: 38s
#> Matching ■■■■■■■■■■■■■■■                   45% | ETA: 40s
#> Matching ■■■■■■■■■■■■■■■■                  50% | ETA: 35s
#> Matching ■■■■■■■■■■■■■■■■■                 55% | ETA: 32s
#> Matching ■■■■■■■■■■■■■■■■■■■               60% | ETA: 28s
#> Matching ■■■■■■■■■■■■■■■■■■■■■             65% | ETA: 27s
#> Matching ■■■■■■■■■■■■■■■■■■■■■■            70% | ETA: 23s
#> Matching ■■■■■■■■■■■■■■■■■■■■■■■           75% | ETA: 19s
#> Matching ■■■■■■■■■■■■■■■■■■■■■■■■■         80% | ETA: 15s
#> Matching ■■■■■■■■■■■■■■■■■■■■■■■■■■■       85% | ETA: 11s
#> Matching ■■■■■■■■■■■■■■■■■■■■■■■■■■■■      90% | ETA:  7s
#> Matching ■■■■■■■■■■■■■■■■■■■■■■■■■■■■■     95% | ETA:  4s
#> Matching ■■■■■■■■■■■■■■■■■■■■■■■■■■■■■■■  100% | ETA:  0s
#> 
#> # A tibble: 23 × 16
#>    assessmentId scientificName           redlistCategory authority    match_type
#>           <dbl> <chr>                    <chr>           <chr>        <chr>     
#>  1     11081542 Antimima quartzitica     Least Concern   (Dinter) H.… Fuzzy (ed…
#>  2     19395021 Avena hybrida            Data Deficient  Peterm.      Fuzzy (ed…
#>  3     64135503 Citrus garrawayi         Least Concern   F.M.Bailey   Fuzzy (ed…
#>  4    189601563 Croton campanulatus      Endangered      Caruzo & Co… Fuzzy (ed…
#>  5    115968141 Cynanchum freemani       Endangered      (N.E.Br.) W… Fuzzy (ed…
#>  6     11047751 Echinacanthus longipes   Vulnerable      H.S.Lo & D.… Fuzzy (ed…
#>  7     11001316 Geissanthus pinchinchana Endangered      (Lundell) P… Fuzzy (ed…
#>  8    126598076 Juglans pyriformis       Endangered      Liebm.       Fuzzy (ed…
#>  9    126598076 Juglans pyriformis       Endangered      Liebm.       Fuzzy (ed…
#> 10    198678856 Leichhardtia variifolia  Vulnerable      (Guillaumin… NA        
#> # … with 13 more rows, and 11 more variables: multiple_matches <lgl>,
#> #   match_similarity <dbl>, match_edit_distance <dbl>, wcvp_id <chr>,
#> #   wcvp_name <chr>, wcvp_authors <chr>, wcvp_rank <chr>, wcvp_status <chr>,
#> #   wcvp_homotypic <lgl>, wcvp_ipni_id <chr>, wcvp_accepted_id <chr>
…
