Generate occurrence matrix for taxa and areas — wcvp_occ_mat • rWCVP
…
    Value

A data.frame containing the taxon_name and plant_name_id

of all species that are present in the area, plus one variable for each WGSPRD level 3 region in area, with species presences marked as 1 and absences marked as 0.

    Details

    See here for an example of how this output can be formatted for publication.

    Examples

wcvp_occ_mat(taxon="Poa", taxon_rank="genus",
area=c("TAS", "VIC","NSW"), introduced=FALSE)
#> # A tibble: 37 × 5
#>    plant_name_id taxon_name          NSW   TAS   VIC
#>    <chr>         <chr>             <dbl> <dbl> <dbl>
#>  1 435044-wcs    Poa affinis           1     0     1
#>  2 469193-wcs    Poa amplexicaulis     0     0     1
#>  3 435565-wcs    Poa cheelii           1     0     0
#>  4 435598-wcs    Poa clelandii         0     1     1
#>  5 435599-wcs    Poa clivicola         1     0     1
#>  6 435658-wcs    Poa costiniana        1     1     1
#>  7 435661-wcs    Poa crassicaudex      0     0     1
#>  8 435797-wcs    Poa drummondiana      0     0     1
#>  9 435841-wcs    Poa ensiformis        1     0     1
#> 10 435878-wcs    Poa fawcettiae        1     1     1
#> # … with 27 more rows
…
