Match names to the WCVP. — wcvp_match_names • rWCVP
…
#> Matching ■■■■■■■■■■■■■■■■                  50% | ETA: 15s
#> Matching ■■■■■■■■■■■■■■■■■■■■■             67% | ETA: 11s
#> Matching ■■■■■■■■■■■■■■■■■■■■■■■■■■        83% | ETA:  5s
#> Matching ■■■■■■■■■■■■■■■■■■■■■■■■■■■■■■■  100% | ETA:  0s
#> 
#> ✔ Found 7 of 9 names
#> 
#> ── Matching complete! ──
#> 
#> ✔ Matched 18 of 20 names
#> ℹ Exact (without author): 11
#> ℹ Fuzzy (edit distance): 4
#> ℹ Fuzzy (phonetic): 3
#> ! Names with multiple matches: 3
#> # A tibble: 23 × 16
#>    assessmentId scient…¹ redli…² autho…³ match…⁴ multi…⁵ match…⁶ match…⁷ wcvp_id
#>           <dbl> <chr>    <chr>   <chr>   <chr>   <lgl>     <dbl>   <dbl> <chr>  
#>  1     11081542 Antimim… Least … (Dinte… Fuzzy … FALSE     0.95        1 642383…
#>  2     19395021 Avena h… Data D… Peterm. Exact … FALSE     1           0 397612…
#>  3     64135503 Citrus … Least … F.M.Ba… Fuzzy … FALSE     0.882       2 724094…
#>  4    189601563 Croton … Endang… Caruzo… Exact … FALSE     1           0 457017…
#>  5    115968141 Cynanch… Endang… (N.E.B… Fuzzy … FALSE     0.947       1 503650…
#>  6     11047751 Echinac… Vulner… H.S.Lo… Exact … FALSE     1           0 781525…
#>  7     11001316 Geissan… Endang… (Lunde… Fuzzy … FALSE     0.875       3 818595…
#>  8    126598076 Juglans… Endang… Liebm.  Exact … TRUE      1           0 331743…
#>  9    126598076 Juglans… Endang… Liebm.  Exact … TRUE      1           0 331744…
#> 10    198678856 Leichha… Vulner… (Guill… NA      FALSE    NA          NA NA     
#> # … with 13 more rows, 7 more variables: wcvp_name <chr>, wcvp_authors <chr>,
#> #   wcvp_rank <chr>, wcvp_status <chr>, wcvp_homotypic <lgl>,
#> #   wcvp_ipni_id <chr>, wcvp_accepted_id <chr>, and abbreviated variable names
#> #   ¹​scientificName, ²​redlistCategory, ³​authority, ⁴​match_type,
#> #   ⁵​multiple_matches, ⁶​match_similarity, ⁷​match_edit_distance
…
#> Matching ■■■■■■■■■■■■■■■■■■■■■             67% | ETA: 11s
#> Matching ■■■■■■■■■■■■■■■■■■■■■■■■■■        83% | ETA:  5s
#> Matching ■■■■■■■■■■■■■■■■■■■■■■■■■■■■■■■  100% | ETA:  0s
#> 
#> ✔ Found 7 of 9 names
#> 
#> ── Matching complete! ──
#> 
#> ✔ Matched 18 of 20 names
#> ℹ Exact (with author): 5
#> ℹ Exact (without author): 6
#> ℹ Fuzzy (edit distance): 4
#> ℹ Fuzzy (phonetic): 3
#> ! Names with multiple matches: 2
#> # A tibble: 22 × 18
#>    assessmentId scient…¹ redli…² autho…³ match…⁴ multi…⁵ match…⁶ match…⁷ wcvp_id
#>           <dbl> <chr>    <chr>   <chr>   <chr>   <lgl>     <dbl>   <dbl> <chr>  
#>  1     11081542 Antimim… Least … (Dinte… Fuzzy … FALSE     0.95        1 642383…
#>  2     19395021 Avena h… Data D… Peterm. Exact … FALSE     1           0 397612…
#>  3     64135503 Citrus … Least … F.M.Ba… Fuzzy … FALSE     0.882       2 724094…
#>  4    189601563 Croton … Endang… Caruzo… Exact … FALSE     1           0 457017…
#>  5    115968141 Cynanch… Endang… (N.E.B… Fuzzy … FALSE     0.947       1 503650…
#>  6     11047751 Echinac… Vulner… H.S.Lo… Exact … FALSE     1           0 781525…
#>  7     11001316 Geissan… Endang… (Lunde… Fuzzy … FALSE     0.875       3 818595…
#>  8    126598076 Juglans… Endang… Liebm.  Exact … FALSE     1           0 331743…
#>  9    198678856 Leichha… Vulner… (Guill… NA      FALSE    NA          NA NA     
#> 10    135836392 Mouriri… Least … (Sw.) … Exact … FALSE     1           0 101815…
#> # … with 12 more rows, 9 more variables: wcvp_name <chr>, wcvp_authors <chr>,
#> #   wcvp_rank <chr>, wcvp_status <chr>, wcvp_homotypic <lgl>,
#> #   wcvp_ipni_id <chr>, wcvp_accepted_id <chr>,
#> #   wcvp_author_edit_distance <dbl>, wcvp_author_lcs <int>, and abbreviated
#> #   variable names ¹​scientificName, ²​redlistCategory, ³​authority, ⁴​match_type,
#> #   ⁵​multiple_matches, ⁶​match_similarity, ⁷​match_edit_distance
…
