• rWCVP
…
6

Perfect! 23 species (rows) won’t take up too much space, and there
are enough occurrences to make it interesting.

Generating and formatting the occurrence matrix

Generating an occurrence matrix for this genus is as simple as using
the generate_occurence_matrix function.

m <- wcvp_occ_mat(taxon="Myrciaria", taxon_rank="genus", 
                                area=get_wgsrpd3_codes("Brazil"))
m
#> # A tibble: 23 x 7
#>    plant_name_id taxon_name             BZC   BZE   BZL   BZN   BZS
#>            <dbl> <chr>                <dbl> <dbl> <dbl> <dbl> <dbl>
#>  1        473796 Myrciaria alagoana       0     1     0     0     0
#>  2        534878 Myrciaria alta           0     0     1     0     0
#>  3        534776 Myrciaria cambuca        0     1     1     0     0
#>  4        131799 Myrciaria cordata        0     0     0     1     0
#>  5        131802 Myrciaria cuspidata      1     1     1     0     1
#>  6        131803 Myrciaria delicatula     1     0     1     0     1
#>  7        131806 Myrciaria disticha       0     1     1     0     0
#>  8        131810 Myrciaria dubia          1     0     0     1     0
#>  9        491614 Myrciaria evanida        0     0     1     0     0
#> 10        131814 Myrciaria ferruginea     0     1     1     0     0
#> # ... with 13 more rows
…
