Introduction to rWCVP • rWCVP
…
#> 
#> $Area
#> [1] "the world"
#> 
#> $Grouping_variable
#> [1] "area_code_l3"
#> 
#> $Total_number_of_species
#> [1] 573
#> 
#> $Number_of_regionally_endemic_species
#> [1] 573
#> 
#> $Summary
#> # A tibble: 280 × 6
#>    area_code_l3 Native Endemic Introduced Extinct Total
#>    <chr>         <int>   <int>      <int>   <int> <int>
#>  1 ABT              21       0          5       0    26
#>  2 AFG              23       1          0       0    23
#>  3 AGE              13       2          5       0    18
#>  4 AGS              24       0         10       0    34
#>  5 AGW              34       8          3       0    37
#>  6 ALA               6       0          3       0     9
#>  7 ALB              17       0          0       0    17
#>  8 ALG               8       0          1       0    11
#>  9 ALT              30       3          1       0    31
#> 10 ALU               7       0          3       0    10
#> # … with 270 more rows
…
#> 
#> $Area
#> [1] "the world"
#> 
#> $Grouping_variable
#> [1] "area_code_l3"
#> 
#> $Total_number_of_species
#> [1] 23770
#> 
#> $Number_of_regionally_endemic_species
#> [1] 23770
#> 
#> $Summary
#> # A tibble: 368 × 6
#>    area_code_l3 Native Endemic Introduced Extinct Total
#>    <chr>         <int>   <int>      <int>   <int> <int>
#>  1 ABT             359       0         70       0   429
#>  2 AFG             485      16         15       0   504
#>  3 AGE             908      31        166       0  1074
#>  4 AGS             389      20         88       0   477
#>  5 AGW             890     130        105       0   995
#>  6 ALA             711       2        153       0   864
#>  7 ALB             363       4         14       0   387
#>  8 ALD              44       7         13       0    57
#>  9 ALG             445      11         41       0   497
#> 10 ALT             383       9          6       0   389
#> # … with 358 more rows
…
#> 
#> $Area
#> [1] "Southern Hemisphere (incl. equatorial Level 3 areas)"
#> 
#> $Grouping_variable
#> [1] "area_code_l3"
#> 
#> $Total_number_of_species
#> [1] 264
#> 
#> $Number_of_regionally_endemic_species
#> [1] 237
#> 
#> $Summary
#> # A tibble: 74 × 6
#>    area_code_l3 Native Endemic Introduced Extinct Total
#>    <chr>         <int>   <int>      <int>   <int> <int>
#>  1 AGE              13       2          5       0    18
#>  2 AGS              24       0         10       0    34
#>  3 AGW              34       8          3       0    37
#>  4 ANT               0       0          1       0     1
#>  5 ASC               0       0          1       0     1
#>  6 ASP               2       1          3       0     5
#>  7 ATP               8       1          3       0    11
#>  8 BOL              31       2          3       0    34
#>  9 BOR               2       1          0       0     2
#> 10 BUR               3       0          0       0     3
#> # … with 64 more rows
…
